{
  "project_info": {
    "project_number": "90017889136",
    "firebase_url": "https://ta-papb-mynotes-default-rtdb.firebaseio.com",
    "project_id": "ta-papb-mynotes",
    "storage_bucket": "ta-papb-mynotes.appspot.com"
  },
  "client": [
    {
      "client_info": {
        "mobilesdk_app_id": "1:90017889136:android:8f5513116b8f07bafcedb5",
        "android_client_info": {
          "package_name": "id.ub.socialme"
        }
      },
      "oauth_client": [
        {
          "client_id": "90017889136-i361foeqa4v8l7sj20stug1icv0cl4pv.apps.googleusercontent.com",
          "client_type": 3
        }
      ],
      "api_key": [
        {
          "current_key": "AIzaSyARXKj2pzmnGJPCn6hrkbqMMt24pf4EkOM"
        }
      ],
      "services": {
        "appinvite_service": {
          "other_platform_oauth_client": [
            {
              "client_id": "90017889136-i361foeqa4v8l7sj20stug1icv0cl4pv.apps.googleusercontent.com",
              "client_type": 3
            }
          ]
        }
      }
    }
  ],
  "configuration_version": "1"
}